C:\Users\miyazaki.konosuke\eclipse\workspace\SpringKenshu\src\main\java\jp\co\kenshu\form\CheckForm.java
C:\Users\miyazaki.konosuke\eclipse\workspace\SpringKenshu\src\main\java\jp\co\kenshu\form\TestForm.java
C:\Users\miyazaki.konosuke\eclipse\workspace\SpringKenshu\src\main\java\jp\co\kenshu\controller\ValidationSampleController.java
C:\Users\miyazaki.konosuke\eclipse\workspace\SpringKenshu\src\main\java\jp\co\kenshu\form\RadioForm.java
C:\Users\miyazaki.konosuke\eclipse\workspace\SpringKenshu\src\main\java\jp\co\kenshu\dto\employee\EmployeeDto.java
C:\Users\miyazaki.konosuke\eclipse\workspace\SpringKenshu\src\main\java\jp\co\kenshu\form\employee\EmployeeListForm.java
C:\Users\miyazaki.konosuke\eclipse\workspace\SpringKenshu\src\main\java\jp\co\kenshu\CheckSampleController.java
C:\Users\miyazaki.konosuke\eclipse\workspace\SpringKenshu\src\main\java\jp\co\kenshu\TestController.java
C:\Users\miyazaki.konosuke\eclipse\workspace\SpringKenshu\src\main\java\jp\co\kenshu\RadioSampleController.java
